# Blender MTL File: 'ac_large.blend'
# Material Count: 9

newmtl Material.001
Ns 96.078431
Ka 1.000000 1.000000 1.000000
Kd 0.800000 0.000000 0.542546
Ks 0.500000 0.500000 0.500000
Ke 0.000000 0.000000 0.000000
Ni 1.000000
d 1.000000
illum 2

newmtl Material.002
Ns 96.078431
Ka 1.000000 1.000000 1.000000
Kd 0.453270 0.346441 0.184558
Ks 0.500000 0.500000 0.500000
Ke 0.000000 0.000000 0.000000
Ni 1.000000
d 1.000000
illum 2

newmtl Material.003
Ns 96.078431
Ka 1.000000 1.000000 1.000000
Kd 0.582884 0.591335 0.519214
Ks 0.500000 0.500000 0.500000
Ke 0.000000 0.000000 0.000000
Ni 1.000000
d 1.000000
illum 2

newmtl Material.004
Ns 96.078431
Ka 1.000000 1.000000 1.000000
Kd 0.354222 0.354222 0.354222
Ks 0.500000 0.500000 0.500000
Ke 0.000000 0.000000 0.000000
Ni 1.000000
d 1.000000
illum 2

newmtl Material.005
Ns 96.078431
Ka 1.000000 1.000000 1.000000
Kd 0.261335 0.261335 0.261335
Ks 0.500000 0.500000 0.500000
Ke 0.000000 0.000000 0.000000
Ni 1.000000
d 1.000000
illum 2

newmtl Material.006
Ns 96.078431
Ka 1.000000 1.000000 1.000000
Kd 0.045837 0.045837 0.045837
Ks 0.500000 0.500000 0.500000
Ke 0.000000 0.000000 0.000000
Ni 1.000000
d 1.000000
illum 2

newmtl Material.007
Ns 96.078431
Ka 1.000000 1.000000 1.000000
Kd 0.614782 0.616445 0.516040
Ks 0.500000 0.500000 0.500000
Ke 0.000000 0.000000 0.000000
Ni 1.000000
d 1.000000
illum 2

newmtl Material.008
Ns 96.078431
Ka 1.000000 1.000000 1.000000
Kd 0.463964 0.457909 0.400809
Ks 0.500000 0.500000 0.500000
Ke 0.000000 0.000000 0.000000
Ni 1.000000
d 1.000000
illum 2

newmtl None
Ns 0
Ka 0.000000 0.000000 0.000000
Kd 0.8 0.8 0.8
Ks 0.8 0.8 0.8
d 1
illum 2
