# Blender v2.79 (sub 0) OBJ File: 'lighting test.blend'
# www.blender.org
mtllib downlight_led.mtl
o floodlight_led_Plane.127
v -0.160791 0.149842 0.190731
v 0.161011 0.149842 0.190731
v -0.160791 0.001489 0.001309
v 0.161011 0.001489 0.001309
v -0.160791 0.181240 0.190731
v 0.161011 0.181240 0.190731
v -0.160791 0.228006 0.099041
v 0.161011 0.228006 0.099041
v -0.160791 0.228006 0.001309
v 0.161011 0.228006 0.001309
v -0.160791 0.149842 0.190731
v 0.161011 0.149842 0.190731
v -0.160791 0.001489 0.001309
v 0.161011 0.001489 0.001309
vt 0.006297 0.996844
vt 0.006297 0.702843
vt 0.638154 0.702843
vt 0.638154 0.996843
vt 0.007032 0.388686
vt 0.007032 0.365660
vt 0.382830 0.365660
vt 0.382830 0.388686
vt 0.007032 0.102310
vt 0.382830 0.102310
vt 0.007032 0.006217
vt 0.382830 0.006217
vt 0.388982 0.326378
vt 0.388982 0.006217
vt 0.653507 0.006217
vt 0.653507 0.148419
vt 0.425649 0.326378
vt 0.388982 0.006217
vt 0.388982 0.326378
vt 0.425648 0.326378
vt 0.653507 0.148419
vt 0.653507 0.006217
vn 0.0000 -0.7873 0.6166
vn 0.0000 0.0000 1.0000
vn 0.0000 0.8908 0.4544
vn 0.0000 1.0000 0.0000
vn 1.0000 0.0000 0.0000
vn -1.0000 0.0000 0.0000
usemtl Material.001
s off
f 11/1/1 13/2/1 14/3/1 12/4/1
usemtl Material.003
f 2/5/2 6/6/2 5/7/2 1/8/2
f 6/6/3 8/9/3 7/10/3 5/7/3
f 8/9/4 10/11/4 9/12/4 7/10/4
f 2/13/5 4/14/5 10/15/5 8/16/5 6/17/5
f 3/18/6 1/19/6 5/20/6 7/21/6 9/22/6
o floodlight_sodium_Plane.126
v -0.160791 0.149842 0.190731
v 0.161011 0.149842 0.190731
v -0.160791 0.001489 0.001309
v 0.161011 0.001489 0.001309
v -0.160791 0.181240 0.190731
v 0.161011 0.181240 0.190731
v -0.160791 0.228006 0.099041
v 0.161011 0.228006 0.099041
v -0.160791 0.228006 0.001309
v 0.161011 0.228006 0.001309
v -0.160791 0.149842 0.190731
v 0.161011 0.149842 0.190731
v -0.160791 0.001489 0.001309
v 0.161011 0.001489 0.001309
vt 0.006297 0.996844
vt 0.006297 0.702843
vt 0.638154 0.702843
vt 0.638154 0.996843
vt 0.007032 0.388686
vt 0.007032 0.365660
vt 0.382830 0.365660
vt 0.382830 0.388686
vt 0.007032 0.102310
vt 0.382830 0.102310
vt 0.007032 0.006217
vt 0.382830 0.006217
vt 0.388982 0.326378
vt 0.388982 0.006217
vt 0.653507 0.006217
vt 0.653507 0.148419
vt 0.425649 0.326378
vt 0.388982 0.006217
vt 0.388982 0.326378
vt 0.425648 0.326378
vt 0.653507 0.148419
vt 0.653507 0.006217
vn 0.0000 -0.7873 0.6166
vn 0.0000 0.0000 1.0000
vn 0.0000 0.8908 0.4544
vn 0.0000 1.0000 0.0000
vn 1.0000 0.0000 0.0000
vn -1.0000 0.0000 0.0000
usemtl Material.001
s off
f 25/23/7 27/24/7 28/25/7 26/26/7
usemtl Material.003
f 16/27/8 20/28/8 19/29/8 15/30/8
f 20/28/9 22/31/9 21/32/9 19/29/9
f 22/31/10 24/33/10 23/34/10 21/32/10
f 16/35/11 18/36/11 24/37/11 22/38/11 20/39/11
f 17/40/12 15/41/12 19/42/12 21/43/12 23/44/12
o downlight_led_Plane.125
v -0.160791 0.001489 0.221346
v 0.161011 0.001489 0.221346
v -0.160791 0.001489 0.001309
v 0.161011 0.001489 0.001309
v -0.160791 0.032887 0.221346
v 0.161011 0.032887 0.221346
v -0.160791 0.228006 0.099041
v 0.161011 0.228006 0.099041
v -0.160791 0.228006 0.001309
v 0.161011 0.228006 0.001309
v -0.160791 0.001489 0.221346
v 0.161011 0.001489 0.221346
v -0.160791 0.001489 0.001309
v 0.161011 0.001489 0.001309
vt 0.006297 0.996844
vt 0.006297 0.702843
vt 0.638154 0.702843
vt 0.638154 0.996843
vt 0.007032 0.388686
vt 0.007032 0.365660
vt 0.382830 0.365660
vt 0.382830 0.388686
vt 0.007032 0.102310
vt 0.382830 0.102310
vt 0.007032 0.006217
vt 0.382830 0.006217
vt 0.388982 0.326378
vt 0.388982 0.006217
vt 0.653507 0.006217
vt 0.653507 0.148419
vt 0.425649 0.326378
vt 0.388982 0.006217
vt 0.388982 0.326378
vt 0.425648 0.326378
vt 0.653507 0.148419
vt 0.653507 0.006217
vn 0.0000 -1.0000 0.0000
vn 0.0000 0.0000 1.0000
vn 0.0000 0.5311 0.8473
vn 0.0000 1.0000 0.0000
vn 1.0000 -0.0000 0.0000
vn -1.0000 0.0000 0.0000
usemtl Material.001
s off
f 39/45/13 41/46/13 42/47/13 40/48/13
usemtl Material.003
f 30/49/14 34/50/14 33/51/14 29/52/14
f 34/50/15 36/53/15 35/54/15 33/51/15
f 36/53/16 38/55/16 37/56/16 35/54/16
f 30/57/17 32/58/17 38/59/17 36/60/17 34/61/17
f 31/62/18 29/63/18 33/64/18 35/65/18 37/66/18
o Plane.021_Plane.124
v -1.029835 -0.862516 0.001309
v 0.970165 -0.862516 0.001309
v -1.029835 1.137484 0.001309
v 0.970165 1.137484 0.001309
vn 0.0000 -0.0000 1.0000
usemtl None
s off
f 43//19 44//19 46//19 45//19
o downlight_sodium_Plane.123
v -0.160791 0.001489 0.221346
v 0.161011 0.001489 0.221346
v -0.160791 0.001489 0.001309
v 0.161011 0.001489 0.001309
v -0.160791 0.032887 0.221346
v 0.161011 0.032887 0.221346
v -0.160791 0.228006 0.099041
v 0.161011 0.228006 0.099041
v -0.160791 0.228006 0.001309
v 0.161011 0.228006 0.001309
v -0.160791 0.001489 0.221346
v 0.161011 0.001489 0.221346
v -0.160791 0.001489 0.001309
v 0.161011 0.001489 0.001309
vt 0.006297 0.996844
vt 0.006297 0.702843
vt 0.638154 0.702843
vt 0.638154 0.996843
vt 0.007032 0.388686
vt 0.007032 0.365660
vt 0.382830 0.365660
vt 0.382830 0.388686
vt 0.007032 0.102310
vt 0.382830 0.102310
vt 0.007032 0.006217
vt 0.382830 0.006217
vt 0.388982 0.326378
vt 0.388982 0.006217
vt 0.653507 0.006217
vt 0.653507 0.148419
vt 0.425649 0.326378
vt 0.388982 0.006217
vt 0.388982 0.326378
vt 0.425648 0.326378
vt 0.653507 0.148419
vt 0.653507 0.006217
vn 0.0000 -1.0000 0.0000
vn 0.0000 0.0000 1.0000
vn 0.0000 0.5311 0.8473
vn 0.0000 1.0000 0.0000
vn 1.0000 -0.0000 0.0000
vn -1.0000 0.0000 0.0000
usemtl Material.001
s off
f 57/67/20 59/68/20 60/69/20 58/70/20
usemtl Material.003
f 48/71/21 52/72/21 51/73/21 47/74/21
f 52/72/22 54/75/22 53/76/22 51/73/22
f 54/75/23 56/77/23 55/78/23 53/76/23
f 48/79/24 50/80/24 56/81/24 54/82/24 52/83/24
f 49/84/25 47/85/25 51/86/25 53/87/25 55/88/25
o Plane.014_Plane.102
v 18.921703 6.091424 -11.254702
v 18.599899 6.091424 -11.254702
v 18.921703 5.990274 -11.059292
v 18.599899 5.990274 -11.059292
v 18.921703 6.119308 -11.240268
v 18.599899 6.119308 -11.240269
v 18.921703 6.236365 -11.041956
v 18.599899 6.236365 -11.041956
v 18.921701 6.191439 -10.955163
v 18.599899 6.191439 -10.955163
v 18.921703 6.091424 -11.254702
v 18.599899 6.091424 -11.254702
v 18.921703 5.990274 -11.059292
v 18.599899 5.990274 -11.059292
vn 0.0000 0.4597 -0.8881
vn 0.0000 0.8612 -0.5083
vn 0.0000 0.8881 0.4597
vn -1.0000 0.0000 0.0000
vn 1.0000 0.0000 0.0000
vn 0.0000 -0.8881 -0.4597
usemtl Material.001_NONE
s off
f 62//26 66//26 65//26 61//26
f 66//27 68//27 67//27 65//27
f 68//28 70//28 69//28 67//28
f 62//29 64//29 70//29 68//29 66//29
f 63//30 61//30 65//30 67//30 69//30
f 71//31 73//31 74//31 72//31
o Plane.013_Plane.101
v 26.576803 6.091424 -11.254701
v 26.255001 6.091424 -11.254701
v 26.576801 5.990274 -11.059291
v 26.254999 5.990274 -11.059291
v 26.576803 6.119307 -11.240267
v 26.255001 6.119307 -11.240268
v 26.576803 6.236365 -11.041955
v 26.254999 6.236365 -11.041955
v 26.576801 6.191438 -10.955162
v 26.254999 6.191438 -10.955162
v 26.576803 6.091424 -11.254701
v 26.255001 6.091424 -11.254701
v 26.576801 5.990274 -11.059291
v 26.254999 5.990274 -11.059291
vn 0.0000 0.4597 -0.8881
vn 0.0000 0.8612 -0.5083
vn 0.0000 0.8881 0.4597
vn -1.0000 0.0000 -0.0000
vn 1.0000 -0.0000 0.0000
vn 0.0000 -0.8881 -0.4597
usemtl Material.001_NONE
s off
f 76//32 80//32 79//32 75//32
f 80//33 82//33 81//33 79//33
f 82//34 84//34 83//34 81//34
f 76//35 78//35 84//35 82//35 80//35
f 77//36 75//36 79//36 81//36 83//36
f 85//37 87//37 88//37 86//37
o Plane.012_Plane.100
v 33.535980 6.091423 -11.254700
v 33.214180 6.091423 -11.254700
v 33.535980 5.990273 -11.059290
v 33.214180 5.990273 -11.059290
v 33.535980 6.119307 -11.240266
v 33.214180 6.119307 -11.240267
v 33.535980 6.236364 -11.041954
v 33.214180 6.236364 -11.041954
v 33.535980 6.191438 -10.955161
v 33.214180 6.191438 -10.955161
v 33.535980 6.091423 -11.254700
v 33.214180 6.091423 -11.254700
v 33.535980 5.990273 -11.059290
v 33.214180 5.990273 -11.059290
vn 0.0000 0.4597 -0.8881
vn 0.0000 0.8612 -0.5083
vn 0.0000 0.8881 0.4597
vn -1.0000 0.0000 0.0000
vn 1.0000 -0.0000 0.0000
vn 0.0000 -0.8881 -0.4597
usemtl Material.001_NONE
s off
f 90//38 94//38 93//38 89//38
f 94//39 96//39 95//39 93//39
f 96//40 98//40 97//40 95//40
f 90//41 92//41 98//41 96//41 94//41
f 91//42 89//42 93//42 95//42 97//42
f 99//43 101//43 102//43 100//43
o Plane.011_Plane.099
v 41.365055 6.091423 -11.254700
v 41.043255 6.091423 -11.254700
v 41.365055 5.990273 -11.059290
v 41.043255 5.990273 -11.059290
v 41.365055 6.119307 -11.240266
v 41.043255 6.119307 -11.240267
v 41.365055 6.236364 -11.041954
v 41.043255 6.236364 -11.041954
v 41.365055 6.191438 -10.955161
v 41.043255 6.191438 -10.955161
v 41.365055 6.091423 -11.254700
v 41.043255 6.091423 -11.254700
v 41.365055 5.990273 -11.059290
v 41.043255 5.990273 -11.059290
vn 0.0000 0.4597 -0.8881
vn 0.0000 0.8612 -0.5083
vn 0.0000 0.8881 0.4597
vn -1.0000 0.0000 0.0000
vn 1.0000 0.0000 0.0000
vn 0.0000 -0.8881 -0.4597
usemtl Material.001_NONE
s off
f 104//44 108//44 107//44 103//44
f 108//45 110//45 109//45 107//45
f 110//46 112//46 111//46 109//46
f 104//47 106//47 112//47 110//47 108//47
f 105//48 103//48 107//48 109//48 111//48
f 113//49 115//49 116//49 114//49
o Plane.010_Plane.098
v 48.810959 6.091423 -11.254699
v 48.489159 6.091423 -11.254699
v 48.810959 5.990273 -11.059289
v 48.489159 5.990273 -11.059289
v 48.810959 6.119306 -11.240265
v 48.489159 6.119306 -11.240266
v 48.810959 6.236364 -11.041953
v 48.489159 6.236364 -11.041953
v 48.810959 6.191437 -10.955160
v 48.489159 6.191437 -10.955160
v 48.810959 6.091423 -11.254699
v 48.489159 6.091423 -11.254699
v 48.810959 5.990273 -11.059289
v 48.489159 5.990273 -11.059289
vn 0.0000 0.4597 -0.8881
vn 0.0000 0.8612 -0.5083
vn 0.0000 0.8881 0.4597
vn -1.0000 0.0000 0.0000
vn 1.0000 -0.0000 0.0000
vn 0.0000 -0.8881 -0.4597
usemtl Material.001_NONE
s off
f 118//50 122//50 121//50 117//50
f 122//51 124//51 123//51 121//51
f 124//52 126//52 125//52 123//52
f 118//53 120//53 126//53 124//53 122//53
f 119//54 117//54 121//54 123//54 125//54
f 127//55 129//55 130//55 128//55
o Plane.009_Plane.097
v 2.834903 6.091424 -11.254703
v 2.513101 6.091424 -11.254703
v 2.834903 5.990275 -11.059293
v 2.513101 5.990275 -11.059293
v 2.834903 6.119308 -11.240269
v 2.513101 6.119308 -11.240270
v 2.834903 6.236366 -11.041957
v 2.513101 6.236366 -11.041957
v 2.834903 6.191439 -10.955164
v 2.513100 6.191439 -10.955164
v 2.834903 6.091424 -11.254703
v 2.513101 6.091424 -11.254703
v 2.834903 5.990275 -11.059293
v 2.513101 5.990275 -11.059293
vn 0.0000 0.4597 -0.8881
vn 0.0000 0.8612 -0.5083
vn 0.0000 0.8881 0.4597
vn -1.0000 0.0000 -0.0000
vn 1.0000 -0.0000 0.0000
vn 0.0000 -0.8881 -0.4597
usemtl Material.001_NONE
s off
f 132//56 136//56 135//56 131//56
f 136//57 138//57 137//57 135//57
f 138//58 140//58 139//58 137//58
f 132//59 134//59 140//59 138//59 136//59
f 133//60 131//60 135//60 137//60 139//60
f 141//61 143//61 144//61 142//61
o Plane.008_Plane.096
v -4.610992 6.091425 -11.254704
v -4.932795 6.091425 -11.254704
v -4.610992 5.990275 -11.059294
v -4.932795 5.990275 -11.059294
v -4.610992 6.119308 -11.240270
v -4.932795 6.119308 -11.240271
v -4.610992 6.236366 -11.041958
v -4.932795 6.236366 -11.041958
v -4.610992 6.191440 -10.955165
v -4.932795 6.191440 -10.955165
v -4.610992 6.091425 -11.254704
v -4.932795 6.091425 -11.254704
v -4.610992 5.990275 -11.059294
v -4.932795 5.990275 -11.059294
vn 0.0000 0.4597 -0.8881
vn 0.0000 0.8612 -0.5083
vn 0.0000 0.8881 0.4597
vn -1.0000 0.0000 0.0000
vn 1.0000 0.0000 0.0000
vn 0.0000 -0.8881 -0.4597
usemtl Material.001_NONE
s off
f 146//62 150//62 149//62 145//62
f 150//63 152//63 151//63 149//63
f 152//64 154//64 153//64 151//64
f 146//65 148//65 154//65 152//65 150//65
f 147//66 145//66 149//66 151//66 153//66
f 155//67 157//67 158//67 156//67
o Plane.007_Plane.095
v -12.440071 6.091425 -11.254704
v -12.761873 6.091425 -11.254704
v -12.440071 5.990276 -11.059295
v -12.761873 5.990276 -11.059295
v -12.440071 6.119309 -11.240271
v -12.761873 6.119309 -11.240272
v -12.440071 6.236367 -11.041959
v -12.761873 6.236367 -11.041959
v -12.440071 6.191440 -10.955166
v -12.761873 6.191440 -10.955166
v -12.440071 6.091425 -11.254704
v -12.761873 6.091425 -11.254704
v -12.440071 5.990276 -11.059295
v -12.761873 5.990276 -11.059295
vn 0.0000 0.4597 -0.8881
vn 0.0000 0.8612 -0.5083
vn 0.0000 0.8881 0.4597
vn -1.0000 -0.0000 0.0000
vn 1.0000 -0.0000 0.0000
vn 0.0000 -0.8881 -0.4597
usemtl Material.001_NONE
s off
f 160//68 164//68 163//68 159//68
f 164//69 166//69 165//69 163//69
f 166//70 168//70 167//70 165//70
f 160//71 162//71 168//71 166//71 164//71
f 161//72 159//72 163//72 165//72 167//72
f 169//73 171//73 172//73 170//73
o Plane.006_Plane.094
v -19.399252 6.091425 -11.254704
v -19.721054 6.091425 -11.254704
v -19.399254 5.990276 -11.059295
v -19.721056 5.990276 -11.059295
v -19.399252 6.119309 -11.240271
v -19.721054 6.119309 -11.240272
v -19.399252 6.236367 -11.041959
v -19.721056 6.236367 -11.041959
v -19.399254 6.191440 -10.955166
v -19.721056 6.191440 -10.955166
v -19.399252 6.091425 -11.254704
v -19.721054 6.091425 -11.254704
v -19.399254 5.990276 -11.059295
v -19.721056 5.990276 -11.059295
vn 0.0000 0.4597 -0.8881
vn 0.0000 0.8612 -0.5083
vn 0.0000 0.8881 0.4597
vn -1.0000 0.0000 -0.0000
vn 1.0000 -0.0000 0.0000
vn 0.0000 -0.8881 -0.4597
usemtl Material.001_NONE
s off
f 174//74 178//74 177//74 173//74
f 178//75 180//75 179//75 177//75
f 180//76 182//76 181//76 179//76
f 174//77 176//77 182//77 180//77 178//77
f 175//78 173//78 177//78 179//78 181//78
f 183//79 185//79 186//79 184//79
o Plane.005_Plane.093
v -27.054350 6.091425 -11.254705
v -27.376152 6.091425 -11.254705
v -27.054352 5.990276 -11.059296
v -27.376154 5.990276 -11.059296
v -27.054350 6.119309 -11.240272
v -27.376152 6.119309 -11.240273
v -27.054350 6.236367 -11.041960
v -27.376154 6.236367 -11.041960
v -27.054352 6.191440 -10.955167
v -27.376154 6.191440 -10.955167
v -27.054350 6.091425 -11.254705
v -27.376152 6.091425 -11.254705
v -27.054352 5.990276 -11.059296
v -27.376154 5.990276 -11.059296
vn 0.0000 0.4597 -0.8881
vn 0.0000 0.8612 -0.5083
vn 0.0000 0.8881 0.4597
vn -1.0000 0.0000 -0.0000
vn 1.0000 0.0000 0.0000
vn 0.0000 -0.8881 -0.4597
usemtl Material.001_NONE
s off
f 188//80 192//80 191//80 187//80
f 192//81 194//81 193//81 191//81
f 194//82 196//82 195//82 193//82
f 188//83 190//83 196//83 194//83 192//83
f 189//84 187//84 191//84 193//84 195//84
f 197//85 199//85 200//85 198//85
o South_Airpark.001_South_Airpark.012
v 66.819839 0.000000 -11.047478
v 66.819839 2.032000 -11.047478
v 66.819839 0.000000 -10.742680
v 66.819839 2.032000 -10.742680
v 67.734238 2.032000 -11.047478
v 67.734238 2.032000 -10.742680
v 67.734238 0.000000 -11.047478
v 67.734238 0.000000 -10.742680
v 48.236458 0.000000 -11.047478
v 48.236458 2.032000 -11.047478
v 48.236458 0.000000 -10.742680
v 48.236458 2.032000 -10.742680
v 49.150860 2.032000 -11.047478
v 49.150860 2.032000 -10.742680
v 49.150860 0.000000 -11.047478
v 49.150860 0.000000 -10.742680
v 67.912514 0.000000 5.303562
v 68.217316 0.000000 5.303562
v 68.217316 0.000000 -11.047478
v 67.912514 0.000000 9.367561
v 63.187160 0.000000 10.586502
v 58.002537 0.000000 10.586502
v 57.088139 0.000000 10.586502
v 67.251160 0.000000 10.586502
v 68.217316 0.000000 9.367561
v 68.217316 0.000000 10.891304
v 67.251160 0.000000 10.891304
v 63.187160 0.000000 10.891304
v 58.002537 0.000000 10.891304
v 57.088139 0.000000 10.891304
v 44.054600 0.000000 10.891304
v 44.054600 0.000000 10.586502
v 39.990601 0.000000 10.586502
v 22.241262 0.000000 -11.047478
v 25.071962 0.000000 10.586502
v 24.157562 0.000000 10.586502
v 39.990601 0.000000 10.891304
v 25.071962 0.000000 10.891304
v 24.157562 0.000000 10.891304
v 22.241262 0.000000 10.891304
v 67.251160 3.556000 10.891304
v 63.187160 3.556000 10.891304
v 67.251160 3.556000 10.586502
v 63.187160 3.556000 10.586502
v 58.002537 2.032000 10.891304
v 57.088139 2.032000 10.891304
v 58.002537 2.032000 10.586502
v 57.088139 2.032000 10.586502
v 25.071962 2.032000 10.891304
v 25.071962 2.032000 10.586502
v 24.157562 2.032000 10.891304
v 24.157562 2.032000 10.586502
v 44.054600 3.556000 10.891304
v 39.990601 3.556000 10.891304
v 44.054600 3.556000 10.586502
v 39.990601 3.556000 10.586502
v 68.217316 4.064000 5.303562
v 67.912514 4.064000 5.303562
v 68.217316 4.064000 9.367561
v 67.912514 4.064000 9.367561
v 68.217316 7.315200 10.891304
v 68.217316 7.368377 10.412853
v 68.217316 7.372076 10.379581
v 68.217316 7.391862 10.398335
v 68.217316 7.555457 8.729664
v 68.217316 7.551902 8.761646
v 68.217316 7.555351 -8.886791
v 68.217316 8.517462 -0.230488
v 68.217316 7.315200 -11.047478
v 68.217316 7.368377 -10.569031
v 68.217316 7.372335 -10.533421
v 68.217316 7.551902 -8.917824
v 68.217316 7.391862 -10.555275
v 68.217316 7.574477 -8.904602
v 68.217316 8.534400 -0.230488
v 68.217316 8.534400 0.074314
v 68.217316 8.517462 0.074314
v 68.217316 7.574477 8.747688
v 22.241262 7.391862 10.398335
v 22.241262 7.372076 10.379581
v 22.241262 7.368377 10.412853
v 22.241262 7.372335 -10.533421
v 22.241262 7.391862 -10.555275
v 22.241262 7.368377 -10.569031
v 22.241262 7.574477 8.747688
v 22.241262 7.555457 8.729664
v 22.241262 7.551902 8.761646
v 22.241262 7.555351 -8.886791
v 22.241262 7.574477 -8.904602
v 22.241262 7.551902 -8.917824
v 22.241262 7.315200 10.891304
v 22.241262 8.517462 0.074314
v 22.241262 7.315200 -11.047478
v 22.241262 8.517462 -0.230488
v 22.241262 8.534400 -0.230488
v 22.241262 8.534400 0.074314
vn 1.0000 0.0000 0.0000
vn 0.0000 -1.0000 0.0000
vn -1.0000 0.0000 0.0000
vn 0.0000 0.0000 -1.0000
vn 0.0000 0.0000 1.0000
vn 1.0000 -0.0001 0.0000
vn 1.0000 0.0004 0.0000
vn 0.0000 0.6879 -0.7258
vn 0.0000 0.5258 0.8506
vn 0.0000 0.5259 0.8506
vn 0.0000 0.7457 0.6663
vn 0.0000 0.5054 -0.8629
vn 0.0000 0.6878 -0.7259
vn 0.0000 0.6815 0.7318
vn 0.0000 0.9939 0.1105
vn 0.0000 0.9939 -0.1105
vn 0.0000 1.0000 0.0000
vn -1.0000 -0.0001 0.0000
usemtl Material.002
s off
f 201//86 202//86 203//86
f 203//86 202//86 204//86
f 202//87 205//87 204//87
f 204//87 205//87 206//87
f 205//88 207//88 206//88
f 206//88 207//88 208//88
f 203//89 204//89 208//89
f 208//89 204//89 206//89
f 209//86 210//86 211//86
f 211//86 210//86 212//86
f 210//87 213//87 212//87
f 212//87 213//87 214//87
f 213//88 215//88 214//88
f 214//88 215//88 216//88
f 211//89 212//89 216//89
f 216//89 212//89 214//89
f 215//87 201//87 216//87
f 216//87 201//87 203//87
f 216//87 203//87 217//87
f 217//87 203//87 208//87
f 217//87 208//87 218//87
f 218//87 208//87 219//87
f 219//87 208//87 207//87
f 220//87 221//87 217//87
f 217//87 221//87 222//87
f 217//87 222//87 223//87
f 221//87 220//87 224//87
f 224//87 220//87 225//87
f 224//87 225//87 226//87
f 226//87 227//87 224//87
f 228//87 229//87 221//87
f 221//87 229//87 222//87
f 230//87 231//87 223//87
f 223//87 231//87 232//87
f 223//87 232//87 211//87
f 211//87 232//87 233//87
f 211//87 233//87 234//87
f 234//87 233//87 235//87
f 234//87 235//87 236//87
f 237//87 238//87 233//87
f 233//87 238//87 235//87
f 239//87 240//87 236//87
f 236//87 240//87 234//87
f 234//87 209//87 211//87
f 223//87 211//87 217//87
f 217//87 211//87 216//87
f 241//87 242//87 243//87
f 243//87 242//87 244//87
f 242//86 228//86 244//86
f 244//86 228//86 221//86
f 227//88 241//88 224//88
f 224//88 241//88 243//88
f 224//90 243//90 221//90
f 221//90 243//90 244//90
f 245//87 246//87 247//87
f 247//87 246//87 248//87
f 246//86 230//86 248//86
f 248//86 230//86 223//86
f 229//88 245//88 222//88
f 222//88 245//88 247//88
f 222//90 247//90 223//90
f 223//90 247//90 248//90
f 238//88 249//88 235//88
f 235//88 249//88 250//88
f 249//87 251//87 250//87
f 250//87 251//87 252//87
f 251//86 239//86 252//86
f 252//86 239//86 236//86
f 235//90 250//90 236//90
f 236//90 250//90 252//90
f 253//87 254//87 255//87
f 255//87 254//87 256//87
f 254//86 237//86 256//86
f 256//86 237//86 233//86
f 231//88 253//88 232//88
f 232//88 253//88 255//88
f 232//90 255//90 233//90
f 233//90 255//90 256//90
f 218//90 257//90 217//90
f 217//90 257//90 258//90
f 257//87 259//87 258//87
f 258//87 259//87 260//87
f 259//89 225//89 260//89
f 260//89 225//89 220//89
f 260//86 220//86 258//86
f 258//86 220//86 217//86
f 225//86 259//86 226//86
f 226//86 259//86 261//86
f 261//86 259//86 262//86
f 262//86 259//86 263//86
f 262//86 263//86 264//86
f 257//86 265//86 259//86
f 259//86 265//86 266//86
f 259//86 266//86 263//86
f 218//86 219//86 257//86
f 257//86 219//86 267//86
f 257//86 267//86 268//86
f 269//86 270//86 219//86
f 219//86 270//86 271//86
f 219//86 271//86 272//86
f 270//86 273//86 271//86
f 274//86 267//86 272//86
f 272//91 267//91 219//91
f 275//86 276//86 268//86
f 268//86 276//86 277//86
f 268//86 277//86 257//86
f 257//86 277//86 265//86
f 265//92 278//92 266//92
f 279//93 264//93 280//93
f 280//93 264//93 263//93
f 281//94 262//94 279//94
f 279//95 262//95 264//95
f 282//96 271//96 283//96
f 283//96 271//96 273//96
f 283//97 273//97 284//97
f 284//97 273//97 270//97
f 285//93 278//93 286//93
f 286//98 278//98 265//98
f 287//95 266//95 285//95
f 285//95 266//95 278//95
f 288//99 267//99 289//99
f 289//99 267//99 274//99
f 289//97 274//97 290//97
f 290//97 274//97 272//97
f 262//100 281//100 261//100
f 261//100 281//100 291//100
f 265//100 277//100 286//100
f 286//100 277//100 292//100
f 284//101 270//101 293//101
f 293//101 270//101 269//101
f 288//101 294//101 267//101
f 267//101 294//101 268//101
f 295//89 275//89 294//89
f 294//89 275//89 268//89
f 271//101 282//101 272//101
f 272//101 282//101 290//101
f 292//90 277//90 296//90
f 296//90 277//90 276//90
f 280//100 263//100 287//100
f 287//100 263//100 266//100
f 275//102 295//102 276//102
f 276//102 295//102 296//102
f 288//88 234//88 294//88
f 294//88 234//88 240//88
f 294//88 240//88 292//88
f 292//88 240//88 286//88
f 286//88 240//88 287//88
f 286//88 287//88 285//88
f 289//88 290//88 288//88
f 288//88 290//88 234//88
f 290//88 282//88 234//88
f 234//88 282//88 284//88
f 234//88 284//88 293//88
f 282//88 283//88 284//88
f 291//88 281//88 240//88
f 240//88 281//88 280//88
f 240//88 280//88 287//88
f 281//103 279//103 280//103
f 296//88 295//88 292//88
f 292//88 295//88 294//88
f 201//89 215//89 202//89
f 202//89 215//89 213//89
f 202//89 213//89 269//89
f 269//89 213//89 210//89
f 269//89 210//89 293//89
f 293//89 210//89 234//89
f 234//89 210//89 209//89
f 202//89 269//89 205//89
f 205//89 269//89 219//89
f 205//89 219//89 207//89
f 227//90 226//90 241//90
f 241//90 226//90 261//90
f 241//90 261//90 242//90
f 242//90 261//90 253//90
f 242//90 253//90 246//90
f 246//90 253//90 231//90
f 246//90 231//90 230//90
f 261//90 291//90 253//90
f 253//90 291//90 254//90
f 254//90 291//90 249//90
f 254//90 249//90 237//90
f 237//90 249//90 238//90
f 249//90 291//90 251//90
f 251//90 291//90 240//90
f 251//90 240//90 239//90
f 246//90 245//90 242//90
f 242//90 245//90 228//90
f 228//90 245//90 229//90
o Plane.019_Plane.052
v 57.400993 2.933891 11.111341
v 57.722794 2.933891 11.111341
v 57.400993 2.933891 10.891304
v 57.722794 2.933891 10.891304
v 57.400993 2.965288 11.111341
v 57.722794 2.965288 11.111341
v 57.400993 3.160407 10.989036
v 57.722794 3.160407 10.989036
v 57.400993 3.160407 10.891304
v 57.722794 3.160407 10.891304
v 57.400993 2.933891 11.111341
v 57.722794 2.933891 11.111341
v 57.400993 2.933891 10.891304
v 57.722794 2.933891 10.891304
vn 0.0000 0.0000 1.0000
vn 0.0000 0.5311 0.8473
vn 0.0000 1.0000 0.0000
vn 1.0000 0.0000 0.0000
vn -1.0000 -0.0000 0.0000
vn 0.0000 -1.0000 0.0000
usemtl Material.001_NONE
s off
f 298//104 302//104 301//104 297//104
f 302//105 304//105 303//105 301//105
f 304//106 306//106 305//106 303//106
f 298//107 300//107 306//107 304//107 302//107
f 299//108 297//108 301//108 303//108 305//108
f 307//109 309//109 310//109 308//109
o Plane.018_Plane.051
v 49.745895 2.933891 11.111341
v 50.067696 2.933891 11.111341
v 49.745895 2.933891 10.891304
v 50.067696 2.933891 10.891304
v 49.745895 2.965288 11.111341
v 50.067696 2.965288 11.111341
v 49.745895 3.160407 10.989036
v 50.067696 3.160407 10.989036
v 49.745895 3.160407 10.891304
v 50.067696 3.160407 10.891304
v 49.745895 2.933891 11.111341
v 50.067696 2.933891 11.111341
v 49.745895 2.933891 10.891304
v 50.067696 2.933891 10.891304
vn 0.0000 0.0000 1.0000
vn 0.0000 0.5311 0.8473
vn 0.0000 1.0000 0.0000
vn 1.0000 -0.0000 0.0000
vn -1.0000 0.0000 0.0000
vn 0.0000 -1.0000 0.0000
usemtl Material.001_NONE
s off
f 312//110 316//110 315//110 311//110
f 316//111 318//111 317//111 315//111
f 318//112 320//112 319//112 317//112
f 312//113 314//113 320//113 318//113 316//113
f 313//114 311//114 315//114 317//114 319//114
f 321//115 323//115 324//115 322//115
o Plane.017_Plane.050
v 42.786713 2.933891 11.111341
v 43.108513 2.933891 11.111341
v 42.786713 2.933891 10.891304
v 43.108513 2.933891 10.891304
v 42.786713 2.965288 11.111341
v 43.108513 2.965288 11.111341
v 42.786713 3.160407 10.989036
v 43.108513 3.160407 10.989036
v 42.786713 3.160407 10.891304
v 43.108513 3.160407 10.891304
v 42.786713 2.933891 11.111341
v 43.108513 2.933891 11.111341
v 42.786713 2.933891 10.891304
v 43.108513 2.933891 10.891304
vn 0.0000 0.0000 1.0000
vn 0.0000 0.5311 0.8473
vn 0.0000 1.0000 0.0000
vn 1.0000 0.0000 0.0000
vn -1.0000 0.0000 0.0000
vn 0.0000 -1.0000 0.0000
usemtl Material.001_NONE
s off
f 326//116 330//116 329//116 325//116
f 330//117 332//117 331//117 329//117
f 332//118 334//118 333//118 331//118
f 326//119 328//119 334//119 332//119 330//119
f 327//120 325//120 329//120 331//120 333//120
f 335//121 337//121 338//121 336//121
o Plane.016_Plane.049
v 34.957634 2.933891 11.111341
v 35.279434 2.933891 11.111341
v 34.957634 2.933891 10.891304
v 35.279434 2.933891 10.891304
v 34.957634 2.965288 11.111341
v 35.279434 2.965288 11.111341
v 34.957634 3.160407 10.989036
v 35.279434 3.160407 10.989036
v 34.957634 3.160407 10.891304
v 35.279434 3.160407 10.891304
v 34.957634 2.933891 11.111341
v 35.279434 2.933891 11.111341
v 34.957634 2.933891 10.891304
v 35.279434 2.933891 10.891304
vn 0.0000 0.0000 1.0000
vn 0.0000 0.5311 0.8473
vn 0.0000 1.0000 0.0000
vn 1.0000 -0.0000 0.0000
vn -1.0000 -0.0000 0.0000
vn 0.0000 -1.0000 0.0000
usemtl Material.001_NONE
s off
f 340//122 344//122 343//122 339//122
f 344//123 346//123 345//123 343//123
f 346//124 348//124 347//124 345//124
f 340//125 342//125 348//125 346//125 344//125
f 341//126 339//126 343//126 345//126 347//126
f 349//127 351//127 352//127 350//127
o Plane.015_Plane.048
v 27.511736 2.933891 11.111341
v 27.833540 2.933891 11.111341
v 27.511736 2.933891 10.891304
v 27.833540 2.933891 10.891304
v 27.511736 2.965288 11.111341
v 27.833540 2.965288 11.111341
v 27.511736 3.160407 10.989036
v 27.833540 3.160407 10.989036
v 27.511736 3.160407 10.891304
v 27.833540 3.160407 10.891304
v 27.511736 2.933891 11.111341
v 27.833540 2.933891 11.111341
v 27.511736 2.933891 10.891304
v 27.833540 2.933891 10.891304
vn 0.0000 0.0000 1.0000
vn 0.0000 0.5311 0.8473
vn 0.0000 1.0000 0.0000
vn 1.0000 0.0000 0.0000
vn -1.0000 -0.0000 0.0000
vn 0.0000 -1.0000 0.0000
usemtl Material.001_NONE
s off
f 354//128 358//128 357//128 353//128
f 358//129 360//129 359//129 357//129
f 360//130 362//130 361//130 359//130
f 354//131 356//131 362//131 360//131 358//131
f 355//132 353//132 357//132 359//132 361//132
f 363//133 365//133 366//133 364//133
o Plane.004_Plane.037
v -18.464319 2.933891 11.111341
v -18.142515 2.933891 11.111341
v -18.464319 2.933891 10.891304
v -18.142515 2.933891 10.891304
v -18.464319 2.965288 11.111341
v -18.142515 2.965288 11.111341
v -18.464319 3.160407 10.989036
v -18.142515 3.160407 10.989036
v -18.464319 3.160407 10.891304
v -18.142515 3.160407 10.891304
v -18.464319 2.933891 11.111341
v -18.142515 2.933891 11.111341
v -18.464319 2.933891 10.891304
v -18.142515 2.933891 10.891304
vn 0.0000 0.0000 1.0000
vn 0.0000 0.5311 0.8473
vn 0.0000 1.0000 0.0000
vn 1.0000 0.0000 0.0000
vn -1.0000 0.0000 0.0000
vn 0.0000 -1.0000 0.0000
usemtl Material.001_NONE
s off
f 368//134 372//134 371//134 367//134
f 372//135 374//135 373//135 371//135
f 374//136 376//136 375//136 373//136
f 368//137 370//137 376//137 374//137 372//137
f 369//138 367//138 371//138 373//138 375//138
f 377//139 379//139 380//139 378//139
o Plane.003_Plane.010
v -11.018420 2.933891 11.111341
v -10.696618 2.933891 11.111341
v -11.018420 2.933891 10.891304
v -10.696618 2.933891 10.891304
v -11.018420 2.965288 11.111341
v -10.696618 2.965288 11.111341
v -11.018420 3.160407 10.989036
v -10.696618 3.160407 10.989036
v -11.018420 3.160407 10.891304
v -10.696618 3.160407 10.891304
v -11.018420 2.933891 11.111341
v -10.696618 2.933891 11.111341
v -11.018420 2.933891 10.891304
v -10.696618 2.933891 10.891304
vn 0.0000 0.0000 1.0000
vn 0.0000 0.5311 0.8473
vn 0.0000 1.0000 0.0000
vn 1.0000 -0.0000 0.0000
vn -1.0000 0.0000 0.0000
vn 0.0000 -1.0000 0.0000
usemtl Material.001_NONE
s off
f 382//140 386//140 385//140 381//140
f 386//141 388//141 387//141 385//141
f 388//142 390//142 389//142 387//142
f 382//143 384//143 390//143 388//143 386//143
f 383//144 381//144 385//144 387//144 389//144
f 391//145 393//145 394//145 392//145
o Plane.002_Plane.009
v -3.189342 2.933891 11.111341
v -2.867540 2.933891 11.111341
v -3.189342 2.933891 10.891304
v -2.867540 2.933891 10.891304
v -3.189342 2.965288 11.111341
v -2.867540 2.965288 11.111341
v -3.189342 3.160407 10.989036
v -2.867540 3.160407 10.989036
v -3.189342 3.160407 10.891304
v -2.867540 3.160407 10.891304
v -3.189342 2.933891 11.111341
v -2.867540 2.933891 11.111341
v -3.189342 2.933891 10.891304
v -2.867540 2.933891 10.891304
vn 0.0000 0.0000 1.0000
vn 0.0000 0.5311 0.8473
vn 0.0000 1.0000 0.0000
vn 1.0000 -0.0000 0.0000
vn -1.0000 0.0000 0.0000
vn 0.0000 -1.0000 0.0000
usemtl Material.001_NONE
s off
f 396//146 400//146 399//146 395//146
f 400//147 402//147 401//147 399//147
f 402//148 404//148 403//148 401//148
f 396//149 398//149 404//149 402//149 400//149
f 397//150 395//150 399//150 401//150 403//150
f 405//151 407//151 408//151 406//151
o Plane.001_Plane.008
v 3.769838 2.933891 11.111341
v 4.091640 2.933891 11.111341
v 3.769838 2.933891 10.891304
v 4.091640 2.933891 10.891304
v 3.769838 2.965288 11.111341
v 4.091640 2.965288 11.111341
v 3.769838 3.160407 10.989036
v 4.091640 3.160407 10.989036
v 3.769838 3.160407 10.891304
v 4.091640 3.160407 10.891304
v 3.769838 2.933891 11.111341
v 4.091640 2.933891 11.111341
v 3.769838 2.933891 10.891304
v 4.091640 2.933891 10.891304
vn 0.0000 0.0000 1.0000
vn 0.0000 0.5311 0.8473
vn 0.0000 1.0000 0.0000
vn 1.0000 0.0000 0.0000
vn -1.0000 -0.0000 0.0000
vn 0.0000 -1.0000 0.0000
usemtl Material.001_NONE
s off
f 410//152 414//152 413//152 409//152
f 414//153 416//153 415//153 413//153
f 416//154 418//154 417//154 415//154
f 410//155 412//155 418//155 416//155 414//155
f 411//156 409//156 413//156 415//156 417//156
f 419//157 421//157 422//157 420//157
o Plane_Plane.001
v 11.424937 2.933891 11.111341
v 11.746739 2.933891 11.111341
v 11.424937 2.933891 10.891304
v 11.746739 2.933891 10.891304
v 11.424937 2.965288 11.111341
v 11.746739 2.965288 11.111341
v 11.424937 3.160407 10.989036
v 11.746739 3.160407 10.989036
v 11.424937 3.160407 10.891304
v 11.746739 3.160407 10.891304
v 11.424937 2.933891 11.111341
v 11.746739 2.933891 11.111341
v 11.424937 2.933891 10.891304
v 11.746739 2.933891 10.891304
vn 0.0000 0.0000 1.0000
vn 0.0000 0.5311 0.8473
vn 0.0000 1.0000 0.0000
vn 1.0000 0.0000 0.0000
vn -1.0000 0.0000 0.0000
vn 0.0000 -1.0000 0.0000
usemtl Material.001_NONE
s off
f 424//158 428//158 427//158 423//158
f 428//159 430//159 429//159 427//159
f 430//160 432//160 431//160 429//160
f 424//161 426//161 432//161 430//161 428//161
f 425//162 423//162 427//162 429//162 431//162
f 433//163 435//163 436//163 434//163
o South_Airpark
v 20.843784 0.000000 -11.047478
v 20.843784 2.032000 -11.047478
v 20.843784 0.000000 -10.742680
v 20.843784 2.032000 -10.742680
v 21.758183 2.032000 -11.047478
v 21.758183 2.032000 -10.742680
v 21.758183 0.000000 -11.047478
v 21.758183 0.000000 -10.742680
v 2.260403 0.000000 -11.047478
v 2.260403 2.032000 -11.047478
v 2.260403 0.000000 -10.742680
v 2.260403 2.032000 -10.742680
v 3.174805 2.032000 -11.047478
v 3.174805 2.032000 -10.742680
v 3.174805 0.000000 -11.047478
v 3.174805 0.000000 -10.742680
v 21.936459 0.000000 5.303562
v 22.241261 0.000000 5.303562
v 22.241261 0.000000 -11.047478
v 21.936459 0.000000 9.367561
v 17.211105 0.000000 10.586502
v 12.026482 0.000000 10.586502
v 11.112083 0.000000 10.586502
v 21.275105 0.000000 10.586502
v 22.241261 0.000000 9.367561
v 22.241261 0.000000 10.891304
v 21.275105 0.000000 10.891304
v 17.211105 0.000000 10.891304
v 12.026482 0.000000 10.891304
v 11.112083 0.000000 10.891304
v -1.921455 0.000000 10.891304
v -1.921455 0.000000 10.586502
v -5.985455 0.000000 10.586502
v -23.734793 0.000000 -11.047478
v -20.904093 0.000000 10.586502
v -21.818493 0.000000 10.586502
v -5.985455 0.000000 10.891304
v -20.904093 0.000000 10.891304
v -21.818493 0.000000 10.891304
v -23.734793 0.000000 10.891304
v 21.275105 3.556000 10.891304
v 17.211105 3.556000 10.891304
v 21.275105 3.556000 10.586502
v 17.211105 3.556000 10.586502
v 12.026482 2.032000 10.891304
v 11.112083 2.032000 10.891304
v 12.026482 2.032000 10.586502
v 11.112083 2.032000 10.586502
v -20.904093 2.032000 10.891304
v -20.904093 2.032000 10.586502
v -21.818493 2.032000 10.891304
v -21.818493 2.032000 10.586502
v -1.921455 3.556000 10.891304
v -5.985455 3.556000 10.891304
v -1.921455 3.556000 10.586502
v -5.985455 3.556000 10.586502
v 22.241261 4.064000 5.303562
v 21.936459 4.064000 5.303562
v 22.241261 4.064000 9.367561
v 21.936459 4.064000 9.367561
v 22.241261 7.315200 10.891304
v 22.241261 7.368377 10.412853
v 22.241261 7.372076 10.379581
v 22.241261 7.391862 10.398335
v 22.241261 7.555457 8.729664
v 22.241261 7.551902 8.761646
v 22.241261 7.555351 -8.886791
v 22.241261 8.517462 -0.230488
v 22.241261 7.315200 -11.047478
v 22.241261 7.368377 -10.569031
v 22.241261 7.372335 -10.533421
v 22.241261 7.551902 -8.917824
v 22.241261 7.391862 -10.555275
v 22.241261 7.574477 -8.904602
v 22.241261 8.534400 -0.230488
v 22.241261 8.534400 0.074314
v 22.241261 8.517462 0.074314
v 22.241261 7.574477 8.747688
v -23.734793 7.391862 10.398335
v -23.734793 7.372076 10.379581
v -23.734793 7.368377 10.412853
v -23.734793 7.372335 -10.533421
v -23.734793 7.391862 -10.555275
v -23.734793 7.368377 -10.569031
v -23.734793 7.574477 8.747688
v -23.734793 7.555457 8.729664
v -23.734793 7.551902 8.761646
v -23.734793 7.555351 -8.886791
v -23.734793 7.574477 -8.904602
v -23.734793 7.551902 -8.917824
v -23.734793 7.315200 10.891304
v -23.734793 8.517462 0.074314
v -23.734793 7.315200 -11.047478
v -23.734793 8.517462 -0.230488
v -23.734793 8.534400 -0.230488
v -23.734793 8.534400 0.074314
vn 1.0000 0.0000 0.0000
vn 0.0000 -1.0000 0.0000
vn -1.0000 0.0000 0.0000
vn 0.0000 0.0000 -1.0000
vn 0.0000 0.0000 1.0000
vn 1.0000 0.0001 0.0000
vn 0.0000 0.6879 -0.7258
vn 0.0000 0.5258 0.8506
vn 0.0000 0.5259 0.8506
vn 0.0000 0.7457 0.6663
vn 0.0000 0.5054 -0.8629
vn 0.0000 0.6878 -0.7259
vn 0.0000 0.6815 0.7318
vn 0.0000 0.9939 0.1105
vn 0.0000 0.9939 -0.1105
vn 0.0000 1.0000 0.0000
vn -1.0000 -0.0001 0.0000
vn -1.0000 0.0001 0.0000
usemtl Material.002
s off
f 437//164 438//164 439//164
f 439//164 438//164 440//164
f 438//165 441//165 440//165
f 440//165 441//165 442//165
f 441//166 443//166 442//166
f 442//166 443//166 444//166
f 439//167 440//167 444//167
f 444//167 440//167 442//167
f 445//164 446//164 447//164
f 447//164 446//164 448//164
f 446//165 449//165 448//165
f 448//165 449//165 450//165
f 449//166 451//166 450//166
f 450//166 451//166 452//166
f 447//167 448//167 452//167
f 452//167 448//167 450//167
f 451//165 437//165 452//165
f 452//165 437//165 439//165
f 452//165 439//165 453//165
f 453//165 439//165 444//165
f 453//165 444//165 454//165
f 454//165 444//165 455//165
f 455//165 444//165 443//165
f 456//165 457//165 453//165
f 453//165 457//165 458//165
f 453//165 458//165 459//165
f 457//165 456//165 460//165
f 460//165 456//165 461//165
f 460//165 461//165 462//165
f 462//165 463//165 460//165
f 464//165 465//165 457//165
f 457//165 465//165 458//165
f 466//165 467//165 459//165
f 459//165 467//165 468//165
f 459//165 468//165 447//165
f 447//165 468//165 469//165
f 447//165 469//165 470//165
f 470//165 469//165 471//165
f 470//165 471//165 472//165
f 473//165 474//165 469//165
f 469//165 474//165 471//165
f 475//165 476//165 472//165
f 472//165 476//165 470//165
f 470//165 445//165 447//165
f 459//165 447//165 453//165
f 453//165 447//165 452//165
f 477//165 478//165 479//165
f 479//165 478//165 480//165
f 478//164 464//164 480//164
f 480//164 464//164 457//164
f 463//166 477//166 460//166
f 460//166 477//166 479//166
f 460//168 479//168 457//168
f 457//168 479//168 480//168
f 481//165 482//165 483//165
f 483//165 482//165 484//165
f 482//164 466//164 484//164
f 484//164 466//164 459//164
f 465//166 481//166 458//166
f 458//166 481//166 483//166
f 458//168 483//168 459//168
f 459//168 483//168 484//168
f 474//166 485//166 471//166
f 471//166 485//166 486//166
f 485//165 487//165 486//165
f 486//165 487//165 488//165
f 487//164 475//164 488//164
f 488//164 475//164 472//164
f 471//168 486//168 472//168
f 472//168 486//168 488//168
f 489//165 490//165 491//165
f 491//165 490//165 492//165
f 490//164 473//164 492//164
f 492//164 473//164 469//164
f 467//166 489//166 468//166
f 468//166 489//166 491//166
f 468//168 491//168 469//168
f 469//168 491//168 492//168
f 454//168 493//168 453//168
f 453//168 493//168 494//168
f 493//165 495//165 494//165
f 494//165 495//165 496//165
f 495//167 461//167 496//167
f 496//167 461//167 456//167
f 496//164 456//164 494//164
f 494//164 456//164 453//164
f 461//164 495//164 462//164
f 462//164 495//164 497//164
f 497//164 495//164 498//164
f 498//164 495//164 499//164
f 498//169 499//169 500//169
f 493//164 501//164 495//164
f 495//164 501//164 502//164
f 495//164 502//164 499//164
f 454//164 455//164 493//164
f 493//164 455//164 503//164
f 493//164 503//164 504//164
f 505//164 506//164 455//164
f 455//164 506//164 507//164
f 455//164 507//164 508//164
f 506//169 509//169 507//169
f 510//164 503//164 508//164
f 508//164 503//164 455//164
f 511//164 512//164 504//164
f 504//164 512//164 513//164
f 504//164 513//164 493//164
f 493//164 513//164 501//164
f 501//169 514//169 502//169
f 515//170 500//170 516//170
f 516//170 500//170 499//170
f 517//171 498//171 515//171
f 515//172 498//172 500//172
f 518//173 507//173 519//173
f 519//173 507//173 509//173
f 519//174 509//174 520//174
f 520//174 509//174 506//174
f 521//170 514//170 522//170
f 522//175 514//175 501//175
f 523//172 502//172 521//172
f 521//172 502//172 514//172
f 524//176 503//176 525//176
f 525//176 503//176 510//176
f 525//174 510//174 526//174
f 526//174 510//174 508//174
f 498//177 517//177 497//177
f 497//177 517//177 527//177
f 501//177 513//177 522//177
f 522//177 513//177 528//177
f 520//178 506//178 529//178
f 529//178 506//178 505//178
f 524//178 530//178 503//178
f 503//178 530//178 504//178
f 531//167 511//167 530//167
f 530//167 511//167 504//167
f 507//178 518//178 508//178
f 508//178 518//178 526//178
f 528//168 513//168 532//168
f 532//168 513//168 512//168
f 516//177 499//177 523//177
f 523//177 499//177 502//177
f 511//179 531//179 512//179
f 512//179 531//179 532//179
f 524//166 470//166 530//166
f 530//166 470//166 476//166
f 530//166 476//166 528//166
f 528//166 476//166 522//166
f 522//166 476//166 523//166
f 522//180 523//180 521//180
f 525//166 526//166 524//166
f 524//166 526//166 470//166
f 526//166 518//166 470//166
f 470//166 518//166 520//166
f 470//166 520//166 529//166
f 518//181 519//181 520//181
f 527//166 517//166 476//166
f 476//166 517//166 516//166
f 476//166 516//166 523//166
f 517//166 515//166 516//166
f 532//166 531//166 528//166
f 528//166 531//166 530//166
f 437//167 451//167 438//167
f 438//167 451//167 449//167
f 438//167 449//167 505//167
f 505//167 449//167 446//167
f 505//167 446//167 529//167
f 529//167 446//167 470//167
f 470//167 446//167 445//167
f 438//167 505//167 441//167
f 441//167 505//167 455//167
f 441//167 455//167 443//167
f 463//168 462//168 477//168
f 477//168 462//168 497//168
f 477//168 497//168 478//168
f 478//168 497//168 489//168
f 478//168 489//168 482//168
f 482//168 489//168 467//168
f 482//168 467//168 466//168
f 497//168 527//168 489//168
f 489//168 527//168 490//168
f 490//168 527//168 485//168
f 490//168 485//168 473//168
f 473//168 485//168 474//168
f 485//168 527//168 487//168
f 487//168 527//168 476//168
f 487//168 476//168 475//168
f 482//168 481//168 478//168
f 478//168 481//168 464//168
f 464//168 481//168 465//168
